…
2.2 For each of the 4 exercises that you complete, provide a *brief
explanation* of why you chose that exercise in relation to your data (in
other words, why does it make sense to do that?), and sufficient
comments for a reader to understand your reasoning and code.

<!-------------------------- Start your work below ---------------------------->

Taking a look at my data…

``` r
vancouver_trees
```

    ## # A tibble: 146,611 × 20
    ##    tree_id civic_number std_st…¹ genus…² speci…³ culti…⁴ commo…⁵ assig…⁶ root_…⁷
    ##      <dbl>        <dbl> <chr>    <chr>   <chr>   <chr>   <chr>   <chr>   <chr>  
    ##  1  149556          494 W 58TH … ULMUS   AMERIC… BRANDON BRANDO… N       N      
    ##  2  149563          450 W 58TH … ZELKOVA SERRATA <NA>    JAPANE… N       N      
    ##  3  149579         4994 WINDSOR… STYRAX  JAPONI… <NA>    JAPANE… N       N      
    ##  4  149590          858 E 39TH … FRAXIN… AMERIC… AUTUMN… AUTUMN… Y       N      
    ##  5  149604         5032 WINDSOR… ACER    CAMPES… <NA>    HEDGE … N       N      
    ##  6  149616          585 W 61ST … PYRUS   CALLER… CHANTI… CHANTI… N       N      
    ##  7  149617         4909 SHERBRO… ACER    PLATAN… COLUMN… COLUMN… N       N      
    ##  8  149618         4925 SHERBRO… ACER    PLATAN… COLUMN… COLUMN… N       N      
    ##  9  149619         4969 SHERBRO… ACER    PLATAN… COLUMN… COLUMN… N       N      
    ## 10  149625          720 E 39TH … FRAXIN… AMERIC… AUTUMN… AUTUMN… N       N      
    ## # … with 146,601 more rows, 11 more variables: plant_area <chr>,
    ## #   on_street_block <dbl>, on_street <chr>, neighbourhood_name <chr>,
    ## #   street_side_name <chr>, height_range_id <dbl>, diameter <dbl>, curb <chr>,
    ## #   date_planted <date>, longitude <dbl>, latitude <dbl>, and abbreviated
    ## #   variable names ¹​std_street, ²​genus_name, ³​species_name, ⁴​cultivar_name,
    ## #   ⁵​common_name, ⁶​assigned, ⁷​root_barrier
…
    ## 
    ## Attaching package: 'lubridate'

    ## The following objects are masked from 'package:base':
    ## 
    ##     date, intersect, setdiff, union

``` r
vt<- vancouver_trees %>% select(tree_id, genus_name, species_name, common_name, neighbourhood_name, street_side_name, diameter, date_planted, height_range_id) %>% 
  mutate(year = year(date_planted)) %>% filter(!year == "<NA>") %>% mutate(age = 2022- year)
vt
```

    ## # A tibble: 70,063 × 11
    ##    tree_id genus_name speci…¹ commo…² neigh…³ stree…⁴ diame…⁵ date_pla…⁶ heigh…⁷
    ##      <dbl> <chr>      <chr>   <chr>   <chr>   <chr>     <dbl> <date>       <dbl>
    ##  1  149556 ULMUS      AMERIC… BRANDO… MARPOLE EVEN      10    1999-01-13       2
    ##  2  149563 ZELKOVA    SERRATA JAPANE… MARPOLE EVEN      10    1996-05-31       4
    ##  3  149579 STYRAX     JAPONI… JAPANE… KENSIN… EVEN       4    1993-11-22       3
    ##  4  149590 FRAXINUS   AMERIC… AUTUMN… KENSIN… EVEN      18    1996-04-29       4
    ##  5  149604 ACER       CAMPES… HEDGE … KENSIN… EVEN       9    1993-12-17       2
    ##  6  149617 ACER       PLATAN… COLUMN… KENSIN… ODD       15    1993-12-16       3
    ##  7  149618 ACER       PLATAN… COLUMN… KENSIN… ODD       14    1993-12-16       3
    ##  8  149619 ACER       PLATAN… COLUMN… KENSIN… ODD       16    1993-12-16       2
    ##  9  149625 FRAXINUS   AMERIC… AUTUMN… KENSIN… EVEN       7.5  1993-12-03       2
    ## 10  149626 TILIA      EUCHLO… CRIMEA… KENSIN… EVEN       7.75 1993-12-03       2
    ## # … with 70,053 more rows, 2 more variables: year <dbl>, age <dbl>, and
    ## #   abbreviated variable names ¹​species_name, ²​common_name,
    ## #   ³​neighbourhood_name, ⁴​street_side_name, ⁵​diameter, ⁶​date_planted,
    ## #   ⁷​height_range_id
…
What I did: I am interested to see if trees sampled from Kitsilano had a
different distribution than the greater Vancouver context does. To
investigate this, I filtered in only data that was associated with trees
which came from the neighborhood of Kitsilano.

``` r
vt_kits <- vt%>% filter(neighbourhood_name == "KITSILANO")
vt_kits
```

    ## # A tibble: 2,564 × 11
    ##    tree_id genus_name speci…¹ commo…² neigh…³ stree…⁴ diame…⁵ date_pla…⁶ heigh…⁷
    ##      <dbl> <chr>      <chr>   <chr>   <chr>   <chr>     <dbl> <date>       <dbl>
    ##  1  155373 PRUNUS     CERASI… NIGHT … KITSIL… EVEN       10   2000-01-21       1
    ##  2  155413 ULMUS      AMERIC… BRANDO… KITSIL… EVEN       14.5 2000-01-21       4
    ##  3  155445 ACER       FREEMA… FREEMA… KITSIL… ODD         3   1997-03-20       2
    ##  4  155446 ACER       RUBRUM  KARPIC… KITSIL… EVEN       16   1996-04-16       4
    ##  5  156380 FRAXINUS   PENNSY… PATMOR… KITSIL… ODD        14   1994-11-22       3
    ##  6  156382 FRAXINUS   PENNSY… PATMOR… KITSIL… ODD        17.8 1994-11-22       2
    ##  7  156390 ACER       CAMPES… HEDGE … KITSIL… ODD        10   1994-11-21       2
    ##  8  156413 FRAXINUS   AMERIC… AUTUMN… KITSIL… ODD        10   1994-11-23       2
    ##  9  156487 ACER       PLATAN… GLOBEH… KITSIL… EVEN        5   1994-11-15       2
    ## 10  156489 ACER       CAMPES… HEDGE … KITSIL… EVEN       10   1994-11-15       2
    ## # … with 2,554 more rows, 2 more variables: year <dbl>, age <dbl>, and
    ## #   abbreviated variable names ¹​species_name, ²​common_name,
    ## #   ³​neighbourhood_name, ⁴​street_side_name, ⁵​diameter, ⁶​date_planted,
    ## #   ⁷​height_range_id
…
RQ2: Are the neighborhoods with the most trees the same neighbors that
have the oldest and biggest trees (height index + diameter)?

**Summarizing** -\> 1. Compute the *range*, *mean*, and *two other
summary statistics* of **one numerical variable** across the groups of
**one categorical variable** from your data.

``` r
vt %>% group_by(neighbourhood_name)%>%
  summarise_at(vars(age), list(min = min, max=max, mean=mean, sd=sd, median=median))
```

    ## # A tibble: 22 × 6
    ##    neighbourhood_name         min   max  mean    sd median
    ##    <chr>                    <dbl> <dbl> <dbl> <dbl>  <dbl>
    ##  1 ARBUTUS-RIDGE                3    33  18.4  7.52     20
    ##  2 DOWNTOWN                     3    33  17.0  6.77     16
    ##  3 DUNBAR-SOUTHLANDS            3    33  17.5  7.25     18
    ##  4 FAIRVIEW                     3    32  18.2  7.03     18
    ##  5 GRANDVIEW-WOODLAND           3    33  18.0  7.52     19
    ##  6 HASTINGS-SUNRISE             3    32  19.7  8.16     19
    ##  7 KENSINGTON-CEDAR COTTAGE     3    33  19.2  7.15     20
    ##  8 KERRISDALE                   3    33  17.2  6.94     17
    ##  9 KILLARNEY                    3    33  18.3  7.87     19
    ## 10 KITSILANO                    3    32  17.1  7.46     16
    ## # … with 12 more rows
…
RQ4: Do neighborhoods that have a name that is “tree-associated”
(e.g. arbutus, woodland, cedar cottage, oakridge) have more trees on
average than neighborhoods with “non-tree-associated” names?

**Summarizing:** -\> Compute the number of observations for at least one
of your categorical variables. Do not use the function `table()`!

``` r
vt %>% mutate(street_tree = ifelse(c(neighbourhood_name == "KENSINGTON-CEDAR COTTAGE" | neighbourhood_name =="OAKRIDGE" | neighbourhood_name =="ARBUTUS-RIDGE"| neighbourhood_name =="RENFREW-COLLINGWOOD" | neighbourhood_name =="GRANDVIEW-WOODLAND"), "tree", "false"))%>% group_by(neighbourhood_name) %>% count(street_tree) 
```

    ## # A tibble: 22 × 3
    ## # Groups:   neighbourhood_name [22]
    ##    neighbourhood_name       street_tree     n
    ##    <chr>                    <chr>       <int>
    ##  1 ARBUTUS-RIDGE            tree         2654
    ##  2 DOWNTOWN                 false        2250
    ##  3 DUNBAR-SOUTHLANDS        false        3773
    ##  4 FAIRVIEW                 false        1414
    ##  5 GRANDVIEW-WOODLAND       tree         3094
    ##  6 HASTINGS-SUNRISE         false        6075
    ##  7 KENSINGTON-CEDAR COTTAGE tree         5844
    ##  8 KERRISDALE               false        3011
    ##  9 KILLARNEY                false        2927
    ## 10 KITSILANO                false        2564
    ## # … with 12 more rows
…
